Positives Size,Total Queries,Negative Universe Size,Max Sample Size,False Positives Chosen,Bits Available,Used Bits Adaptive,Cold Construction Adaptive,Warm Construction Adaptive,Cold Lookup Adaptive,Warm Lookup Adaptive,Cold Disk Adaptive,Warm Disk Adaptive,Cold FPR Adaptive,Warm FPR Adaptive,Used Bits Traditional,Construction Traditional,Lookup Traditional,Disk Traditional,FPR Traditional
1713331,20000000,,10000000,500000,5692,8,7.96374,0.915768,0.691495,0.151363,6.01558,0.344531,8.58059,0.0177632,0.00908889,8,0.584577,5.14625,17.2012,0.0180215
1713331,20000000,,10000000,1000000,9893,8,7.96372,0.923624,0.713005,0.337162,6.09084,1.10465,7.19061,0.0220308,0.00757143,8,0.585247,5.2238,22.2176,0.0216659
1713331,20000000,,10000000,2000000,17248,8,7.96368,0.905189,0.699406,0.627342,5.67369,2.69792,6.07806,0.0269651,0.00666386,8,0.581987,5.13174,17.8817,0.0185288
1713331,20000000,,10000000,4000000,30935,8,7.96319,0.884178,0.671952,1.17767,4.80384,4.7375,4.39197,0.025815,0.00598299,8,0.562341,4.87524,17.2312,0.0184767
