Number Of Positive Elements,Zipf Parameter,Negative Universe Size,Number of Known Negatives,Psi,Bits Available,Equal Fprs,Num Layers,Used Bits,Total FPR,Known FPR,Unknown FPR,Construction Time,Positive Lookup Time,Negative Lookup Time,Filter Checks For Positive,Filter Checks For Negative
120000,0.9,10000000,38508,0.474697,6,0,3,0,0.0341927,0,0,0.0616177,0.0516218,0.220588,2.00403,1.09455
120000,0.9,10000000,46801,0.488712,6.25,0,3,0,0.0313148,0,0,0.0734636,0.0609752,0.246391,2.00535,1.09906
120000,0.9,10000000,59051,0.505747,6.5,0,3,0,0.0269015,0,0,0.0813349,0.0638781,0.255858,2.00587,1.08144
120000,0.9,10000000,67581,0.515695,6.75,0,3,0,0.0230356,0,0,0.0835358,0.0647662,0.253752,2.00528,1.07438
120000,0.9,10000000,68494,0.516531,7,0,3,0,0.0202024,0,0,0.09337,0.0709362,0.281149,2.00462,1.06349
120000,0.9,10000000,84700,0.532779,7.25,0,3,0,0.0172576,0,0,0.103834,0.0758273,0.301006,2.00531,1.05784
120000,0.9,10000000,99216,0.544966,7.5,0,3,0,0.015372,0,0,0.0977805,0.0688223,0.262769,2.00505,1.05098
120000,0.9,10000000,118521,0.558838,7.75,0,3,0,0.0134793,0,0,0.0993989,0.0664973,0.252272,2.00695,1.04731
120000,0.9,10000000,144666,0.574666,8,0,3,0,0.0116971,0,0,0.0933743,0.0587287,0.216098,2.0071,1.03862
120000,0.9,10000000,175564,0.590379,8.25,0,3,0,0.00996012,0,0,0.0888712,0.0514845,0.191075,2.00728,1.04246
120000,0.9,10000000,179216,0.591922,8.5,0,3,0,0.0086022,0,0,0.088654,0.0510867,0.188228,2.00635,1.034
120000,0.9,10000000,216815,0.60788,8.75,0,3,0,0.00733184,0,0,0.0959837,0.051268,0.185572,2.00668,1.02956
120000,0.9,10000000,261341,0.62369,9,0,3,0,0.00634676,0,0,0.104853,0.0516286,0.184259,2.00752,1.02575
120000,0.9,10000000,316566,0.64028,9.25,0,3,0,0.00571048,0,0,0.120836,0.0560586,0.189832,2.00925,1.02562
120000,0.9,10000000,376435,0.655749,9.5,0,3,0,0.00486296,0,0,0.131395,0.0557729,0.187778,2.00889,1.02398
120000,0.9,10000000,453499,0.672541,9.75,0,3,0,0.00407904,0,0,0.146644,0.0562586,0.186438,2.00917,1.01823
120000,0.9,10000000,487652,0.678903,10,0,3,0,0.00352912,0,0,0.152844,0.0557737,0.185009,2.00854,1.01687
120000,0.9,10000000,585099,0.695547,10.25,0,3,0,0.00300628,0,0,0.171409,0.0558077,0.184882,2.00932,1.0166
120000,0.9,10000000,702432,0.712657,10.5,0,3,0,0.00256468,0,0,0.193757,0.0561261,0.1835,2.00996,1.0159
120000,0.9,10000000,847941,0.730703,10.75,0,3,0,0.00216496,0,0,0.220848,0.0565714,0.182161,2.01073,1.01393
120000,0.9,10000000,1027495,0.749402,11,0,3,0,0.00189824,0,0,0.263364,0.0591824,0.186878,2.01324,1.01221
120000,0.9,10000000,1250489,0.768946,11.25,0,3,0,0.00160276,0,0,0.30568,0.0593212,0.185785,2.01414,1.01281
120000,0.9,10000000,1544180,0.790152,11.5,0,3,0,0.00132964,0,0,0.362373,0.0594179,0.18486,2.01652,1.011
120000,0.9,10000000,1613204,0.794827,11.75,0,3,0,0.001113,0,0,0.373099,0.0590107,0.183452,2.01247,1.00989
120000,0.9,10000000,1982594,0.816097,12,0,3,0,0.0009076,0,0,0.445163,0.0598246,0.183513,2.01536,1.00814
120000,0.9,10000000,2357913,0.834372,12.25,0,3,0,0.00074944,0,0,0.51491,0.0593268,0.182176,2.01476,1.00747
120000,0.9,10000000,2864510,0.855298,12.5,0,3,0,0.00061252,0,0,0.611009,0.0597495,0.18184,2.01572,1.00721
120000,0.9,10000000,3160581,0.865975,12.75,0,3,0,0.00051256,0,0,0.673238,0.0615481,0.183484,2.01217,1.00936
120000,0.9,10000000,4091133,0.894604,13,0,3,0,0.00040232,0,0,0.841657,0.0602338,0.180008,2.01831,1.00649
120000,0.9,10000000,4949234,0.916256,13.25,0,3,0,0.0003052,0,0,1.00441,0.0605281,0.18006,2.01973,1.00603
120000,0.9,10000000,5912182,0.936905,13.5,0,3,0,0.00022396,0,0,1.18675,0.0607468,0.179967,2.02176,1.00661
120000,0.9,10000000,7244079,0.960927,13.75,0,3,0,0.0001464,0,0,1.44045,0.061293,0.179796,2.02927,1.00634
