Number Of Positive Elements,Negative Sample Size,Zipf Parameter,Negative Universe Size,Number of Known Negatives Available,Number of Known Negatives Chosen,Psi,Bits Available,Equal Fprs,Num Layers,Used Bits,Total FPR,Known FPR,Unknown FPR,Construction Time,Positive Lookup Time,Negative Lookup Time,Filter Checks For Positive,Filter Checks For Negative
1000000,1000000,1.25,100000000,10000000000,6776036,0.991592,12,0,3,11.9923,1.532e-05,0,0,0.732727,0.118646,0.0513026,0,0
1000000,1000000,1.25,100000000,10000000000,26030820,0.996493,12.5,0,3,12.4592,6.18e-06,0,0,1.80753,0.118727,0.0489245,0,0
1000000,1000000,1.25,100000000,10000000000,9486450,0.993003,13,0,3,12.9934,6.42e-06,0,0,0.883189,0.119222,0.0510666,0,0
1000000,1000000,1.25,100000000,10000000000,51020407,0.998387,13.5,0,3,13.4928,1.48e-06,0,0,3.23674,0.12157,0.0490505,0,0
1000000,1000000,1.25,100000000,10000000000,9486450,0.992974,14,0,3,13.9939,3.16e-06,0,0,0.888684,0.117207,0.0493029,0,0
