Number Of Positive Elements,Negative Sample Size,Zipf Parameter,Negative Universe Size,Number of Known Negatives Available,Number of Known Negatives Chosen,Psi,Bits Available,Equal Fprs,Num Layers,Used Bits,Total FPR,Known FPR,Unknown FPR,Construction Time,Positive Lookup Time,Negative Lookup Time,Filter Checks For Positive,Filter Checks For Negative,EFPB
8000,10000000,0.75,0,8000,8000,0.5,10,0,3,13.435,0.00100209,0,0.00200418,3.28653,0,0.385871,0,0,0.0019419
80000,10000000,0.75,0,80000,80000,0.5,10,0,3,12.9858,0.00100829,2e-05,0.00199658,3.37595,0,0.427541,0,0,0.00194259
800000,10000000,0.75,0,800000,800000,0.5,10,0,3,12.9867,0.000989165,3.75e-06,0.00197458,4.01094,0,0.550392,0,0,0.00200031
8000000,10000000,0.75,0,8000000,8000000,0.5,10,0,3,12.9864,0.00100161,4.725e-06,0.0019985,12.4947,0,1.66444,0,0,0.00196389
80000000,10000000,0.75,0,80000000,80000000,0.5,10,0,3,12.9866,0.00100127,3.88e-06,0.00199866,111.474,0,3.19337,0,0,0.00196336
800000000,10000000,0.75,0,800000000,800000000,0.5,10,0,3,12.9867,0.00100494,3.74e-06,0.00200614,1155.03,0,3.60199,0,0,0.00197741
