Number Of Positive Elements,Sample Size,Zipf Parameter,Negative Universe Size,Number of Known Negatives Available,Number of Known Negatives Chosen,Psi,Bits Available,Equal Fprs,Num Layers,Used Bits,Total FPR,Known FPR,Unknown FPR,Construction Time,Lookup Time,EFPB
1000000,100000,0.75,100000000,10000000000,1062598,0.315023,8,0,7,7.94476,0.018379,0.000829,0.027018,0.144578,135.647,0.0268839
1000000,100000,0.75,100000000,10000000000,3123977,0.415059,10,0,3,9.94632,0.005757,0.000117,0.010108,0.231501,43.2823,0.0102292
1000000,100000,0.75,100000000,10000000000,11055526,0.57254,12,0,7,11.9442,0.001899,0,0.004188,0.589151,13.0693,0.00428156
1000000,100000,0.75,100000000,10000000000,40139060,0.793958,14,0,7,13.92,0.000448,0,0.002082,1.85147,2.40236,0.00212787
