Number Of Positive Elements,Negative Sample Size,Zipf Parameter,Negative Universe Size,Number of Known Negatives Available,Number of Known Negatives Chosen,Psi,Bits Available,Equal Fprs,Num Layers,Used Bits,Total FPR,Known FPR,Unknown FPR,Construction Time,Positive Lookup Time,Negative Lookup Time,Filter Checks For Positive,Filter Checks For Negative,EFPB
1000000,1000000,1.25,100000000,10000000000,227182,0.968814,6,0,3,5.9461,0.00328,0,0,0.134368,0.093395,0.038316,0,0,0.0717928
1000000,1000000,1.25,100000000,10000000000,339272,0.972506,6.5,0,3,6.46069,0.002511,0,0,0.11118,0.096112,0.044975,0,0,0.0555401
1000000,1000000,1.25,100000000,10000000000,431915,0.97482,7,0,3,6.9462,0.001452,0,0,0.116332,0.098184,0.042039,0,0,0.0431726
1000000,1000000,1.25,100000000,10000000000,639290,0.977986,7.5,0,3,7.44649,0.000948,0,0,0.128536,0.090828,0.04052,0,0,0.0334132
1000000,1000000,1.25,100000000,10000000000,899664,0.980498,8,0,3,7.95387,0.000984,0,0,0.149233,0.095447,0.075843,0,0,0.0262518
1000000,1000000,1.25,100000000,10000000000,1152318,0.981984,8.5,0,3,8.4522,0.000389,0,0,0.169598,0.097903,0.043357,0,0,0.0205242
1000000,1000000,1.25,100000000,10000000000,1638720,0.984402,9,0,3,8.94221,0.000278,0,0,0.193986,0.106266,0.050319,0,0,0.0161365
1000000,1000000,1.25,100000000,10000000000,2254255,0.986321,9.5,0,3,9.44968,0.000204,0,0,0.216592,0.105951,0.049125,0,0,0.012821
1000000,1000000,1.25,100000000,10000000000,2875082,0.987412,10,0,3,9.94711,0.000167,0,0,0.243784,0.125933,0.051002,0,0,0.0100855
1000000,1000000,1.25,100000000,10000000000,3957612,0.989235,10.5,0,3,10.4471,0.000104,0,0,0.297805,0.109231,0.0558,0,0,0.00800294
1000000,1000000,1.25,100000000,10000000000,5381802,0.990603,11,0,3,10.9446,9.3e-05,0,0,0.465995,0.123528,0.049657,0,0,0.00641384
1000000,1000000,1.25,100000000,10000000000,6888439,0.991819,11.5,0,3,11.4425,4.6e-05,0,0,0.544096,0.112343,0.065666,0,0,0.00508283
1000000,1000000,1.25,100000000,10000000000,9363584,0.992869,12,0,3,11.9395,3.2e-05,0,0,0.604087,0.148886,0.0396,0,0,0.00406874
1000000,1000000,1.25,100000000,10000000000,12629703,0.993998,12.5,0,3,12.4377,2.3e-05,0,0,0.913444,0.118993,0.043124,0,0,0.00328715
1000000,1000000,1.25,100000000,10000000000,16046738,0.994803,13,0,3,12.9352,1.5e-05,0,0,0.977847,0.117679,0.045264,0,0,0.00261925
1000000,1000000,1.25,100000000,10000000000,21906219,0.995898,13.5,0,3,13.4316,5e-06,0,0,1.30817,0.120869,0.03883,0,0,0.00212557
1000000,1000000,1.25,100000000,10000000000,29585608,0.996946,14,0,3,13.9273,7e-06,0,0,1.75543,0.20033,0.041107,0,0,0.00173996
