Number Of Positive Elements,Sample Size,Positive Rate,Negative Universe Size,Number of Known Negatives Available,Number of Known Negatives Chosen,Psi,Bits Available,Equal Fprs,Num Layers,Used Bits,Total FPR,Known FPR,Unknown FPR,Construction Time,Lookup Time,Filter Time,Disk Time,EFPB
10000,10000,0,90000,10000,9995,0.994218,8,0,3,7.97837,0.0001564,0.00010085,0.0277443,0.00127844,0.0442336,0.00379044,0.0404432,0.0280119
10000,10000,0,90000,10000,9991,0.994027,10,0,3,9.95538,5.88e-05,0.00010009,0.0101703,0.00122769,0.0127147,0.0033326,0.00938208,0.0101935
10000,10000,0,90000,10000,9999,0.994088,12,0,3,11.9408,2.44e-05,0.00010001,0.0039132,0.00114411,0.00396604,0.00319824,0.0007678,0.0039076
10000,10000,0,90000,10000,9999,0.994102,14,0,3,13.9356,9.6e-06,0.00010001,0.00151068,0.00124942,0.00384916,0.00325232,0.00059684,0.00151107
