Number Of Positive Elements,Sample Size,Positive Rate,Negative Universe Size,Number of Known Negatives Available,Number of Known Negatives Chosen,Psi,Bits Available,Equal Fprs,Num Layers,Used Bits,Total FPR,Known FPR,Unknown FPR,Construction Time,Lookup Time,Filter Time,Disk Time,EFPB
10000,25000,0,90000,10000,9993,0.993987,8,0,3,7.98007,0.0001596,0.000101071,0.0277981,0.00210909,0.0218322,0.00140548,0.0204268,0.0280152
10000,25000,0,90000,10000,9999,0.994091,10,0,3,9.9541,6.44e-05,0.00010001,0.0101325,0.00118167,0.00529241,0.00085496,0.00443745,0.0101945
10000,25000,0,90000,10000,9999,0.994024,12,0,3,11.9411,2.8e-05,0.00010001,0.00391758,0.00118152,0.00193141,0.00080908,0.00112233,0.00390709
10000,25000,0,90000,10000,9992,0.994162,14,0,3,13.9356,1.08e-05,0.00010008,0.0015116,0.00130796,0.00145898,0.00084553,0.00061345,0.00151103
