Number Of Positive Elements,Negative Sample Size,Zipf Parameter,Negative Universe Size,Number of Known Negatives Available,Number of Known Negatives Chosen,Psi,Bits Available,Equal Fprs,Num Layers,Used Bits,Total FPR,Known FPR,Unknown FPR,Construction Time,Lookup Time,Filter Time,Disk Time,Filter Checks For Negative
9894,1000000,0,100000000,10000000000,0,0.0779006,8,0,1,8.01491,0.0373948,0.02096,0.00190484,0.00060432,3336.54,0.343744,3336.2,
9894,1000000,0,100000000,10000000000,0,0.0779006,10,0,1,10.0003,0.00241672,0.0084,0.00073092,0.00055256,4.07715,0.314052,3.7631,
9894,1000000,0,100000000,10000000000,0,0.0779006,12,0,1,12.0224,0.00324004,0.00284,0.00027872,0.00063608,106.916,0.305751,106.611,
9894,1000000,0,100000000,10000000000,0,0.0779006,14,0,1,14.0038,0.00481004,0.00128,0.00010644,0.00073408,271.911,0.339282,271.572,
