Number Of Positive Elements,Sample Size,Positive Rate,Negative Universe Size,Number of Known Negatives Available,Number of Known Negatives Chosen,Psi,Bits Available,Equal Fprs,Num Layers,Used Bits,Total FPR,Known FPR,Unknown FPR,Construction Time,Lookup Time,Filter Time,Disk Time,EFPB
10000,100000,0,90000,10000,9992,0.994064,8,0,3,7.97574,0.00016332,0.00010048,0.0277301,0.00121314,0.00420487,0.00354611,0.000658756,0.027994
10000,100000,0,90000,10000,9999,0.994068,10,0,3,9.9546,6.128e-05,0.00010001,0.0102348,0.00117491,0.00348706,0.00326009,0.000226968,0.0101923
10000,100000,0,90000,10000,9999,0.994092,12,0,3,11.9411,2.424e-05,0.00010001,0.0039333,0.00113128,0.0033081,0.0031446,0.0001635,0.00390706
10000,100000,0,90000,10000,9999,0.994085,14,0,3,13.9365,8.92e-06,0.00010001,0.00151733,0.00122417,0.00337057,0.00325258,0.000117996,0.00151039
