Number Of Positive Elements,Negative Sample Size,Negative Universe Size,Number of Known Negatives Available,Number of Known Negatives Chosen,Psi,Bits Available,Equal Fprs,Num Layers,Used Bits,Total FPR,Known FPR,Unknown FPR,Construction Time,Positive Lookup Time,Negative Lookup Time,Filter Checks For Positive,Filter Checks For Negative,EFPB
10000,100000,90000,10000,3825,0.988597,4,0,3,3.99083,0.00286796,,,,,,,,
10000,100000,90000,10000,3773,0.988496,4.5,0,3,4.49145,0.00199976,,,,,,,,
10000,100000,90000,10000,5049,0.990444,5,0,3,4.98899,0.00130796,,,,,,,,
10000,100000,90000,10000,8020,0.993036,5.5,0,3,5.48784,0.0008636,,,,,,,,
10063,1000000,100000000,10000000000,0,0.038408,6,0,3,5.97079,0.0123816,0,0,0.601851,0.00079916,0.0415629,0,0,0
10063,1000000,100000000,10000000000,0,0.038408,6.5,0,3,6.46823,0.00232932,0,0,0.601891,0.0008218,0.0393594,0,0,0
10063,1000000,100000000,10000000000,0,0.038408,7,0,3,6.96599,0.00471612,0,0,0.501787,0.0008168,0.0383244,0,0,0
10063,1000000,100000000,10000000000,0,0.038408,7.5,0,3,7.46336,0.000414847,0,0,0.601801,0.0008274,0.0347277,0,0,0
10063,1000000,100000000,10000000000,0,0.038408,8,0,3,7.96031,0.000287428,0,0,0.50175,0.00083656,0.0321355,0,0,0
10063,1000000,100000000,10000000000,0,0.038408,8.5,0,3,8.45777,0.000153315,0,0,0.501818,0.00091188,0.0319154,0,0,0
10063,1000000,100000000,10000000000,0,0.038408,9,0,3,8.95518,0.000111875,0,0,0.501782,0.00088504,0.0325017,0,0,0
10063,1000000,100000000,10000000000,0,0.038408,9.5,0,3,9.45271,9.18214E-05,0,0,0.501883,0.00095148,0.0330906,0,0,0
10063,1000000,100000000,10000000000,0,0.038408,10,0,3,9.9501,6.38586E-05,0,0,0.501886,0.00095368,0.0340468,0,0,0
10063,1000000,100000000,10000000000,0,0.038408,10.5,0,3,10.4476,5.26716E-05,0,0,0.501807,0.0008978,0.0322795,0,0,0
10063,1000000,100000000,10000000000,0,0.038408,11,0,3,10.9451,4.02805E-05,0,0,0.501902,0.000944,0.0314674,0,0,0
10063,1000000,100000000,10000000000,0,0.038408,11.5,0,3,11.4426,3.24255E-05,0,0,0.501786,0.00092016,0.0314014,0,0,0
10063,1000000,100000000,10000000000,0,0.038408,12,0,3,11.94,2.52015E-05,0,0,0.501755,0.00090668,0.0318667,0,0,0
10063,1000000,100000000,10000000000,0,0.038408,12.5,0,3,12.4376,1.79577E-05,0,0,0.501881,0.00093496,0.0332927,0,0,0
10063,1000000,100000000,10000000000,0,0.038408,13,0,3,12.9351,1.44273E-05,0,0,0.502,0.00095116,0.0325529,0,0,0
10063,1000000,100000000,10000000000,0,0.038408,13.5,0,3,13.4325,1.30378E-05,0,0,0.501884,0.00098376,0.0330241,0,0,0
10063,1000000,100000000,10000000000,0,0.038408,14,0,3,13.9301,1.01301E-05,0,0,0.502016,0.0010118,0.0339953,0,0,0
