Number Of Positive Elements,Sample Size,Positive Rate,Negative Universe Size,Number of Known Negatives Available,Number of Known Negatives Chosen,Psi,Bits Available,Equal Fprs,Num Layers,Used Bits,Total FPR,Known FPR,Unknown FPR,Construction Time,Lookup Time,Filter Time,Disk Time,EFPB
10000,25000,0,90000,10000,0,0,8,0,1,8.0149,0.0151336,-nan,0.0213954,0.00078798,3.54342,0.00126762,3.54216,0.0214158
10000,25000,0,90000,10000,0,0,10,0,1,10.0003,0.0076168,-nan,0.00825311,0.00111619,1.77743,0.0015164,1.77592,0.00819255
10000,25000,0,90000,10000,0,0,12,0,1,12.0224,0.0084072,-nan,0.00313233,0.00126366,1.95546,0.00148543,1.95397,0.00313403
10000,25000,0,90000,10000,0,0,14,0,1,14.0038,0.0007808,-nan,0.00121822,0.00112352,0.173318,0.00119506,0.172123,0.00119891
