,Total FPR,Size of Backup,Bits Per Element
0,0.020160010588423788,7179486,4.865134812879482
1,0.017001054419406594,7786399,5.272137196230094
2,0.014197070138825988,8460545,5.724226752272364
3,0.011860084951715208,9134066,6.175897176594612
4,0.009970944945884824,9802894,6.624420424657552
5,0.008437151690126172,10488918,7.0844754952125095
6,0.006952398136803428,11279185,7.614437042391988
7,0.005761886421653993,12035500,8.12163001331833
8,0.004863923751622121,12773410,8.616480393353443
9,0.003974436090390478,13641017,9.19830697609541
10,0.0032369619514653536,14464271,9.75038996015231
11,0.0026474986791405757,15276040,10.294770979722072
12,0.0021969302938858173,16080863,10.83449393700819
13,0.0018881297130636033,16789616,11.309791319346182
14,0.0016137924668937608,17540582,11.813397193359881
15,0.0016137924668937608,17540582,11.813397193359881
16,0.000816478828703542,20822052,14.013986257844468
17,0.0004409445913001168,23960498,16.118661890129818
18,0.0002377208491912974,26751098,17.990068254762342
19,0.00013707585351751617,29152947,19.60077401893
