Number Of Positive Elements,Negative Sample Size,Zipf Parameter,Negative Universe Size,Number of Known Negatives Available,Number of Known Negatives Chosen,Psi,Bits Available,Equal Fprs,Num Layers,Used Bits,Total FPR,Known FPR,Unknown FPR,Construction Time,Positive Lookup Time,Negative Lookup Time,Filter Checks For Positive,Filter Checks For Negative,EFPB
1000000,1000000,0,100000000,10000000000,40203064,0.40205,10,0,7,14.2296,0.00102624,0,0,2.33161,0.143418,0.0566561,0,0,0.00167508
1000000,1000000,0.1,100000000,10000000000,38572105,0.424227,10,0,7,14.1387,0.00101032,0,0,2.26645,0.141953,0.0567419,0,0,0.00173989
1000000,1000000,0.2,100000000,10000000000,36414581,0.44576,10,0,5,14.0398,0.00101512,0,0,2.22277,0.151549,0.0576584,0,0,0.00180713
1000000,1000000,0.3,100000000,10000000000,34044072,0.470279,10,0,7,13.924,0.00102252,0,0,2.27273,0.162908,0.0635565,0,0,0.00189155
1000000,1000000,0.4,100000000,10000000000,31611165,0.501128,10,0,7,13.778,0.00099204,0,0,1.67585,0.123825,0.0526663,0,0,0.00200826
1000000,1000000,0.5,100000000,10000000000,28635930,0.535052,10,0,7,13.6033,0.00099728,0,0,1.52584,0.124222,0.0514308,0,0,0.00215559
1000000,1000000,0.6,100000000,10000000000,25256954,0.576433,10,0,5,13.3746,0.00100308,0,0,1.55189,0.138526,0.0575945,0,0,0.00236664
1000000,1000000,0.7,100000000,10000000000,21194245,0.626555,10,0,5,13.0686,0.00099712,0,0,1.31448,0.141238,0.0580031,0,0,0.00268544
1000000,1000000,0.8,100000000,10000000000,18019701,0.703055,10,0,5,12.6107,0.00101744,0,0,1.13566,0.136801,0.0605442,0,0,0.00338067
1000000,1000000,0.9,100000000,10000000000,12482581,0.779183,10,0,7,11.924,0.00100192,0,0,0.821952,0.127463,0.0560754,0,0,0.00454864
1000000,1000000,1.1,100000000,10000000000,4210595,0.934428,10,0,7,9.38923,0.00126208,0,0,0.325043,0.110821,0.0462943,0,0,0.0154845
1000000,1000000,1.2,100000000,10000000000,1905353,0.972235,10,0,5,7.689,0.00096212,0,0,0.18284,0.0927776,0.0443785,0,0,0.0357155
1000000,1000000,1.3,100000000,10000000000,648365,0.988091,10,0,3,7.89148,0.00081652,0,0,0.127551,0.0996809,0.0412035,0,0,0.026468
1000000,1000000,1.4,100000000,10000000000,266629,0.995114,10,0,7,4.94353,0.00074096,0,0,0.0941619,0.0831115,0.0420978,0,0,0.141265
