Number Of Positive Elements,Negative Sample Size,Zipf Parameter,Negative Universe Size,Number of Known Negatives Available,Number of Known Negatives Chosen,Psi,Bits Available,Equal Fprs,Num Layers,Used Bits,Total FPR,Known FPR,Unknown FPR,Construction Time,Positive Lookup Time,Negative Lookup Time,Filter Checks For Positive,Filter Checks For Negative,EFPB
1000000,1000000,0,100000000,10000000000,167,1.52E-06,10,0,3,9.67213,0.010108,-nan,0,0.0908411,0.0935858,0.0583149,0,0,0.010101
1000000,1000000,0.1,100000000,10000000000,278,1.052E-05,10,0,3,9.67212,0.0101109,0,0,0.100277,0.0964122,0.0596654,0,0,0.0101011
1000000,1000000,0.2,100000000,10000000000,10680,0.0006618,10,0,3,9.67128,0.0101426,0,0,0.107517,0.108573,0.0565659,0,0,0.0101077
1000000,1000000,0.3,100000000,10000000000,138675,0.0100148,10,0,3,9.71548,0.00994332,0,0,0.116437,0.113289,0.0548948,0,0,0.0102028
1000000,1000000,0.4,100000000,10000000000,470485,0.0400998,10,0,3,9.62805,0.00999888,0,0,0.139242,0.111213,0.0567503,0,0,0.0105229
1000000,1000000,0.5,100000000,10000000000,1136948,0.106559,10,0,3,9.57669,0.0100009,0,0,0.174269,0.112882,0.0545867,0,0,0.0113038
1000000,1000000,0.6,100000000,10000000000,1581683,0.18997,10,0,3,9.42886,0.0101061,0,0,0.200197,0.115742,0.0581672,0,0,0.0124625
1000000,1000000,0.7,100000000,10000000000,1856147,0.300128,10,0,3,9.18954,0.0102705,0,0,0.222382,0.125214,0.0574583,0,0,0.0144029
1000000,1000000,0.8,100000000,10000000000,1834475,0.436913,10,0,3,8.80618,0.00995824,0,0,0.207597,0.111287,0.0550547,0,0,0.0178256
1000000,1000000,0.9,100000000,10000000000,1702928,0.60672,10,0,3,8.19493,0.0101176,0,0,0.202506,0.112985,0.0556234,0,0,0.0250696
1000000,1000000,1.1,100000000,10000000000,601090,0.882562,10,0,3,6.3782,0.0128164,0,0,0.137394,0.105815,0.0563962,0,0,0.0608134
1000000,1000000,1.2,100000000,10000000000,252572,0.947027,10,0,3,5.78388,0.0081822,0,0,0.10428,0.0939571,0.0507665,0,0,0.0800767
1000000,1000000,1.3,100000000,10000000000,130749,0.978588,10,0,3,5.51254,0.008146,0,0,0.111953,0.104803,0.0536784,0,0,0.0915653
1000000,1000000,1.4,100000000,10000000000,66612,0.991039,10,0,3,4.98147,0.106958,0,0,0.0880401,0.0848923,0.0423796,0,0,0.096419
