Number Of Positive Elements,Negative Sample Size,Zipf Parameter,Negative Universe Size,Number of Known Negatives Available,Number of Known Negatives Chosen,Psi,Bits Available,Equal Fprs,Num Layers,Used Bits,Total FPR,Known FPR,Unknown FPR,Construction Time,Positive Lookup Time,Negative Lookup Time,Filter Checks For Positive,Filter Checks For Negative,EFPB
1000000,1000000,1.25,100000000,10000000000,227339,0.968625,6,0,3,5.9572,0.0065546,0,0,0.528233,0.484433,0.246736,0,0,0.0717955
1000000,1000000,1.25,100000000,10000000000,904650,0.980314,6.5,0,5,6.46677,0.00142652,0,0,0.679019,0.475523,0.234369,0,0,0.0638399
1000000,1000000,1.25,100000000,10000000000,433316,0.974571,7,0,3,6.96168,0.00186928,0,0,0.494746,0.420116,0.192148,0,0,0.0431825
1000000,1000000,1.25,100000000,10000000000,639889,0.977779,7.5,0,3,7.45074,0.00134568,0,0,0.522535,0.409444,0.186904,0,0,0.0334159
1000000,1000000,1.25,100000000,10000000000,2243787,0.986127,8,0,5,7.95869,0.00046436,0,0,0.842935,0.425379,0.190686,0,0,0.031409
1000000,1000000,1.25,100000000,10000000000,1162758,0.982056,8.5,0,3,8.44792,0.00050144,0,0,0.638887,0.435081,0.182335,0,0,0.0205447
1000000,1000000,1.25,100000000,10000000000,1640139,0.984307,9,0,3,8.949,0.00057944,0,0,0.73332,0.443104,0.179181,0,0,0.0161373
1000000,1000000,1.25,100000000,10000000000,2226547,0.986101,9.5,0,3,9.45189,0.00026272,0,0,0.87297,0.467295,0.193758,0,0,0.0127985
1000000,1000000,1.25,100000000,10000000000,6367267,0.991334,10,0,7,9.95029,0.00013444,0,0,1.67379,0.482788,0.195442,0,0,0.0127525
1000000,1000000,1.25,100000000,10000000000,7442200,0.991989,10.5,0,5,10.4429,7.772e-05,0,0,2.0784,0.548004,0.222332,0,0,0.00973691
1000000,1000000,1.25,100000000,10000000000,9864253,0.993135,11,0,7,10.9424,5.428e-05,0,0,2.26971,0.470982,0.184944,0,0,0.00791335
1000000,1000000,1.25,100000000,10000000000,12546495,0.994036,11.5,0,5,11.4325,3.776e-05,0,0,3.71673,0.672987,0.237401,0,0,0.00637491
1000000,1000000,1.25,100000000,10000000000,15295156,0.994767,12,0,5,11.9291,2.6e-05,0,0,4.27986,0.658544,0.239714,0,0,0.00499297
1000000,1000000,1.25,100000000,10000000000,20089603,0.995663,12.5,0,5,12.4252,1.66e-05,0,0,5.36134,0.656788,0.226132,0,0,0.00408976
1000000,1000000,1.25,100000000,10000000000,26235866,0.996499,13,0,5,12.9193,1.388e-05,0,0,7.00036,0.699485,0.233651,0,0,0.00339183
1000000,1000000,1.25,100000000,10000000000,32657552,0.997155,13.5,0,7,13.4261,7.44e-06,0,0,8.46364,0.692568,0.232332,0,0,0.0027277
1000000,1000000,1.25,100000000,10000000000,43228203,0.997964,14,0,7,13.9174,4.48e-06,0,0,9.99898,0.624549,0.209121,0,0,0.00231464
