Zipf Parameter,Number Of Positive Elements,Sample Size,Positive Rate,Negative Universe Size,Number of Known Negatives Available,Number of Known Negatives Chosen,Psi,Bits Available,Equal Fprs,Num Layers,Used Bits,Total FPR,Known FPR,Unknown FPR,Construction Time,Lookup Time,Filter Time,Disk Time,EFPB
0.75,1000000,100000,0,100000000,100000000,794502,0.292692,8,0,7,7.96431,0.017466,0,0.0246508,0.134292,152.707,0.0569832,152.65,0.0250795
0.75,1000000,100000,0,100000000,100000000,3679569,0.433179,10,0,7,9.9536,0.0056988,4.4E-06,0.0101056,0.274375,50.116,0.053874,50.0621,0.0104531
0.75,1000000,100000,0,100000000,100000000,20592351,0.671076,12,0,7,11.9417,0.001612,1.2E-06,0.0048556,1.07623,14.71,0.0561488,14.6538,0.00520421
0.75,1000000,100000,0,100000000,100000000,99254306,0.99811,14,0,5,13.9356,7.08E-05,4.68E-05,0.004076,4.71503,1.56349,0.0570504,1.50644,0.00518018
